{"name":"User can send get request.","id":"testing-curd-operation-using-different-request-on-the-application.:User can send get request.","testSteps":[{"number":1,"description":"When User sends a GET request to list endpoint","duration":3352,"startTime":"2022-06-20T12:11:54.984+01:00[Europe/London]","result":"SUCCESS","precondition":false,"children":[{"number":2,"description":"Getting All students information","duration":2995,"startTime":"2022-06-20T12:11:55.340+01:00[Europe/London]","result":"SUCCESS","precondition":false,"children":[{"number":3,"description":"GET https://reqres.in/api/users\r\r","duration":1,"startTime":"2022-06-20T12:11:58.299+01:00[Europe/London]","result":"SUCCESS","restQuery":{"method":"GET","path":"https://reqres.in/api/users\r\r","content":"\r","contentType":"null","requestHeaders":"Accept\u003d*/*\r\r","requestCookies":"\r\r","responseHeaders":"Date: Mon, 20 Jun 2022 11:11:58 GMT\nContent-Type: application/json; charset\u003dutf-8\nTransfer-Encoding: chunked\nConnection: keep-alive\nX-Powered-By: Express\nAccess-Control-Allow-Origin: *\nEtag: W/\"3e4-2RLXvr5wTg9YQ6aH95CkYoFNuO8\"\nVia: 1.1 vegur\nCache-Control: max-age\u003d14400\nCF-Cache-Status: REVALIDATED\nExpect-CT: max-age\u003d604800, report-uri\u003d\"https://report-uri.cloudflare.com/cdn-cgi/beacon/expect-ct\"\nReport-To: {\"endpoints\":[{\"url\":\"https:\\/\\/a.nel.cloudflare.com\\/report\\/v3?s\u003dnNKaZ7l2wGZUVmxV0PHyxfTcEQi%2BRHiP%2BShhc7OeUxiKwLWVS9WjBLeZcGa%2B7ZPG%2FJY%2F23N3aU%2BUM2oNR60XcQIybM7w8fWJ8lPMgnGz%2FKA%2BANKncrMNMHMo4A%3D%3D\"}],\"group\":\"cf-nel\",\"max_age\":604800}\nNEL: {\"success_fraction\":0,\"report_to\":\"cf-nel\",\"max_age\":604800}\nVary: Accept-Encoding\nServer: cloudflare\nCF-RAY: 71e41114fb1e54be-MAN\nContent-Encoding: gzip\r","responseCookies":"\r","responseBody":"{\n    \"page\": 1,\n    \"per_page\": 6,\n    \"total\": 12,\n    \"total_pages\": 2,\n    \"data\": [\n        {\n            \"id\": 1,\n            \"email\": \"george.bluth@reqres.in\",\n            \"first_name\": \"George\",\n            \"last_name\": \"Bluth\",\n            \"avatar\": \"https://reqres.in/img/faces/1-image.jpg\"\n        },\n        {\n            \"id\": 2,\n            \"email\": \"janet.weaver@reqres.in\",\n            \"first_name\": \"Janet\",\n            \"last_name\": \"Weaver\",\n            \"avatar\": \"https://reqres.in/img/faces/2-image.jpg\"\n        },\n        {\n            \"id\": 3,\n            \"email\": \"emma.wong@reqres.in\",\n            \"first_name\": \"Emma\",\n            \"last_name\": \"Wong\",\n            \"avatar\": \"https://reqres.in/img/faces/3-image.jpg\"\n        },\n        {\n            \"id\": 4,\n            \"email\": \"eve.holt@reqres.in\",\n            \"first_name\": \"Eve\",\n            \"last_name\": \"Holt\",\n            \"avatar\": \"https://reqres.in/img/faces/4-image.jpg\"\n        },\n        {\n            \"id\": 5,\n            \"email\": \"charles.morris@reqres.in\",\n            \"first_name\": \"Charles\",\n            \"last_name\": \"Morris\",\n            \"avatar\": \"https://reqres.in/img/faces/5-image.jpg\"\n        },\n        {\n            \"id\": 6,\n            \"email\": \"tracey.ramos@reqres.in\",\n            \"first_name\": \"Tracey\",\n            \"last_name\": \"Ramos\",\n            \"avatar\": \"https://reqres.in/img/faces/6-image.jpg\"\n        }\n    ],\n    \"support\": {\n        \"url\": \"https://reqres.in/#support-heading\",\n        \"text\": \"To keep ReqRes free, contributions towards server costs are appreciated!\"\n    }\n}","statusCode":200},"precondition":false}]}]},{"number":4,"description":"Then User get back a valid status code 200","duration":70,"startTime":"2022-06-20T12:11:58.337+01:00[Europe/London]","result":"SUCCESS","precondition":false}],"userStory":{"id":"testing-curd-operation-using-different-request-on-the-application.","storyName":"Testing CURD operation using different request on the application.","path":"users.feature","type":"feature"},"featureTag":{"name":"Testing CURD operation using different request on the application.","type":"feature"},"title":"User can send get request.","description":"","tags":[{"name":"Testing CURD operation using different request on the application.","type":"feature"}],"startTime":"2022-06-20T12:11:54.816+01:00[Europe/London]","duration":3600,"projectKey":"","manual":false,"result":"SUCCESS"}